…
## 1 Données

### 1.1 Importation

J’importe les données à l’aide du package **readxl**, qui gère les
fichiers Excel parfaitement (décimales, pourcentages, valeurs
manquantes), avec la fonction `read_xlsx()`.

``` r
library(readxl)
(lgd <- read_xlsx("data_LGD.xlsx"))
```

    ## # A tibble: 3,000 x 5
    ##             LGD Seniorite Taille Collateral Pays 
    ##           <dbl> <chr>     <chr>  <chr>      <chr>
    ##  1 0.00106      Senior    PME    Unsecured  OCDE 
    ##  2 0.0000000514 Senior    PME    Unsecured  OCDE 
    ##  3 0.000487     Senior    PME    Unsecured  OCDE 
    ##  4 0.995        Senior    PME    Unsecured  OCDE 
    ##  5 0.972        Senior    PME    Unsecured  OCDE 
    ##  6 0.723        Senior    PME    Unsecured  OCDE 
    ##  7 0.0000000280 Senior    PME    Unsecured  OCDE 
    ##  8 0.00000191   Senior    PME    Unsecured  OCDE 
    ##  9 0.00792      Senior    PME    Unsecured  OCDE 
    ## 10 0.239        Senior    PME    Unsecured  OCDE 
    ## # ... with 2,990 more rows
…
